<?xml version="1.0" encoding="UTF-8" standalone="no"?>
<!-- Created with Inkscape (http://www.inkscape.org/) -->

<svg
   xmlns:dc="http://purl.org/dc/elements/1.1/"
   xmlns:cc="http://creativecommons.org/ns#"
   xmlns:rdf="http://www.w3.org/1999/02/22-rdf-syntax-ns#"
   xmlns:svg="http://www.w3.org/2000/svg"
   xmlns="http://www.w3.org/2000/svg"
   version="1.1"
   width="100%"
   height="100%"
   viewBox="0 0 1011.0225 193.20977"
   id="Layer_1"
   xml:space="preserve"><metadata
   id="metadata58"><rdf:RDF><cc:Work
       rdf:about=""><dc:format>image/svg+xml</dc:format><dc:type
         rdf:resource="http://purl.org/dc/dcmitype/StillImage" /><dc:title></dc:title></cc:Work></rdf:RDF></metadata><defs
   id="defs56">
	
	
	
	
	
	
	
	
	
	
	
	
	
	
	
	
	
	
	
</defs>
<style
   type="text/css"
   id="style3" />

<g
   transform="matrix(2.7344818,0,0,2.7344818,3.2725031e-5,0.70224719)"
   id="g3054"
   style="fill:#365897;fill-opacity:1;stroke:none"><path
     d="M -1.2207031e-5,0.10000126 V 70.400001 l 24.200000207031,0 v -48.4 c 0,0 17.6,-4.3 17.6,13.2 0,0 0.7,13.6 -13.2,13.2 v 21.5 h 2.2 c 0,0 35.2,4.8 35.2,-34.8 0,0 0,-35.0999997357178 -35.2,-35.0999997357178 H -1.2207031e-5 z"
     id="path34"
     style="fill:#365897;fill-opacity:1;stroke:none" /><path
     d="M 98.899991,1.2642822e-6 H 83.499988 c 0,0 -7.9,0.1999999957178 -8.8,8.8000000357178 l -8.8,61.5999997 h 28.600003 l 1.6,-44 c 0,0 -0.3,-4.4 2.8,-4.4 V 1.2642822e-6 z"
     id="path36"
     style="fill:#365897;fill-opacity:1;stroke:none" /><path
     d="m 127.39999,8.9000013 c 0,0 -1.5,-8.9000000357178 -8.8,-8.9000000357178 h -15.3 V 22.000001 c 0,0 2.9,-0.5 2.8,4.1 l 0.6,13.4 -6.799999,0.1 -0.3,17.5 h 7.899999 l 0.3,13.2 h 28.6 l -9,-61.3999997 z"
     id="path38"
     style="fill:#365897;fill-opacity:1;stroke:none" /><polygon
     points="436.1,121.7 449.3,152.4 449.3,192 440.5,192 429.5,157.7 429.5,192 405.3,192 405.3,121.7 "
     transform="translate(-264.70001,-121.6)"
     id="polygon40"
     style="fill:#365897;fill-opacity:1;stroke:none" /><polygon
     points="603.1,192 587.9,161.2 587.9,192 563.6,192 563.6,121.7 589.9,121.7 603.1,148 "
     transform="translate(-264.70001,-121.6)"
     id="polygon42"
     style="fill:#365897;fill-opacity:1;stroke:none" /><polygon
     points="466.9,121.7 453.7,152.4 453.7,192 462.5,192 473.4,157.7 473.4,192 497.6,192 497.6,121.7 "
     transform="translate(-264.70001,-121.6)"
     id="polygon44"
     style="fill:#365897;fill-opacity:1;stroke:none" /><rect
     width="53"
     height="19.799999"
     x="239.5"
     y="0.099998474"
     id="rect46"
     style="fill:#365897;fill-opacity:1;stroke:none" /><rect
     width="53"
     height="19.799999"
     x="239.5"
     y="25.4"
     id="rect48"
     style="fill:#365897;fill-opacity:1;stroke:none" /><rect
     width="53"
     height="19.799999"
     x="239.5"
     y="50.599998"
     id="rect50"
     style="fill:#365897;fill-opacity:1;stroke:none" /><rect
     width="27.170431"
     height="70.656815"
     x="342.56049"
     y="-0.2568118"
     id="rect52"
     style="fill:#365897;fill-opacity:1;stroke:none" /></g>
</svg>