<?xml version="1.0" encoding="UTF-8" standalone="no"?>
<!DOCTYPE svg  PUBLIC '-//W3C//DTD SVG 1.1//EN'  'http://www.w3.org/Graphics/SVG/1.1/DTD/svg11.dtd' [
	<!ENTITY ns_svg "http://www.w3.org/2000/svg">
	<!ENTITY ns_xlink "http://www.w3.org/1999/xlink">
]>
<svg xmlns="http://www.w3.org/2000/svg" xml:space="preserve" height="85.04" viewBox="0 0 85.039 85.039" width="85.04" version="1.1" overflow="visible" xmlns:xlink="http://www.w3.org/1999/xlink" enable-background="new 0 0 85.039 85.039"><g fill="#152B74">
<polygon points="55.28 60.86 55.28 85.04 85.04 85.04 85.04 80.7"/>
<polygon points="0 55.28 0 61.1 8.729 55.28"/>
<polygon points="0 24.02 0 29.77 8.629 29.77"/>
<polygon points="85.04 61.1 85.04 55.28 76.31 55.28"/>
<polygon points="85.04 4.411 85.04 0 55.28 0 55.28 24.25"/>
<polygon points="0 80.7 0 85.04 29.76 85.04 29.76 60.86"/>
<polygon points="29.76 0 0 0 0 4.415 29.76 24.26"/>
<polygon points="85.04 29.77 85.04 24.02 76.41 29.77"/></g><g fill="#fff">
<polygon points="55.28 24.25 55.28 0 49.96 0 49.96 27.8"/>
<polygon points="49.96 57.32 49.96 85.04 55.28 85.04 55.28 60.86"/>
<polygon points="8.629 29.77 0 29.77 0 35.08 16.59 35.08"/>
<polygon points="35.07 27.8 35.07 0 29.76 0 29.76 24.26"/>
<polygon points="29.76 60.86 29.76 85.04 35.07 85.04 35.07 57.32"/>
<polygon points="76.31 55.28 85.04 55.28 85.04 49.96 68.33 49.96"/>
<polygon points="16.71 49.96 0 49.96 0 55.28 8.729 55.28"/>
<polygon points="68.45 35.08 85.04 35.08 85.04 29.77 76.41 29.77"/>
<polygon points="68.33 49.96 49.96 49.96 49.96 57.32 55.28 60.86 85.04 80.7 85.04 70.66 61.92 55.28 72.01 55.28 85.04 63.94 85.04 61.1 76.31 55.28"/>
<polygon points="16.59 35.08 35.07 35.08 35.07 27.8 29.76 24.26 0 4.415 0 14.2 23.41 29.77 13.31 29.77 0 20.92 0 24.02 8.629 29.77"/>
<polygon points="35.07 57.32 35.07 49.96 16.71 49.96 8.729 55.28 0 61.1 0 70.67 23.14 55.28 29.76 55.28 29.76 57.59 0 77.38 0 80.7 29.76 60.86"/>
<polygon points="49.96 27.8 49.96 35.08 68.45 35.08 76.41 29.77 85.04 24.02 85.04 14.15 61.56 29.77 55.28 29.77 55.28 27.23 85.04 7.432 85.04 4.411 55.28 24.25"/></g><g fill="#CE142A">
<polygon points="49.96 49.96 68.33 49.96 85.04 49.96 85.04 35.08 68.45 35.08 49.96 35.08 49.96 27.8 49.96 0 35.07 0 35.07 27.8 35.07 35.08 16.59 35.08 0 35.08 0 49.96 16.71 49.96 35.07 49.96 35.07 57.32 35.07 85.04 49.96 85.04 49.96 57.32"/>
<polygon points="61.92 55.28 85.04 70.66 85.04 63.94 72.01 55.28"/>
<polygon points="55.28 29.77 61.56 29.77 85.04 14.15 85.04 7.432 55.28 27.23"/>
<polygon points="29.76 55.28 23.14 55.28 0 70.67 0 77.38 29.76 57.59"/>
<polygon points="23.41 29.77 0 14.2 0 20.92 13.31 29.77"/>
</g></svg>
