<?xml version="1.0" encoding="UTF-8" standalone="no"?>
<svg
   xmlns:dc="http://purl.org/dc/elements/1.1/"
   xmlns:cc="http://creativecommons.org/ns#"
   xmlns:rdf="http://www.w3.org/1999/02/22-rdf-syntax-ns#"
   xmlns:svg="http://www.w3.org/2000/svg"
   xmlns="http://www.w3.org/2000/svg"
   version="1.1"
   id="Livello_1"
   x="0px"
   y="0px"
   width="275.213px"
   height="233.667px"
   viewBox="0 0 275.213 233.667"
   enable-background="new 0 0 275.213 233.667"
   xml:space="preserve"><metadata
   id="metadata339"><rdf:RDF><cc:Work
       rdf:about=""><dc:format>image/svg+xml</dc:format><dc:type
         rdf:resource="http://purl.org/dc/dcmitype/StillImage" /><dc:title></dc:title></cc:Work></rdf:RDF></metadata><defs
   id="defs337">
	
	
	

		
		
		
		
		
		
		
		
		
		
	
		
		
	</defs>
<path
   d="m 237.234,232.592 -38.09,-34.148 4.13,-4.607 c 13.404,-15.633 20.782,-35.592 20.782,-56.23 0,-47.667 -38.781,-86.448 -86.449,-86.448 -47.669,0 -86.451,38.781 -86.451,86.448 0,19.803 6.849,39.109 19.298,54.445 0.846,0.898 2.833,2.983 4.486,4.711 l -36.955,35.374 c -5.692,-5.946 -5.96,-6.272 -6.607,-7.06 C 11.151,200.548 0,169.474 0,137.605 0,61.73 61.73,0 137.607,0 c 75.876,0 137.605,61.73 137.605,137.605 0,32.973 -11.842,64.867 -33.344,89.809 l -0.328,0.374 z"
   id="path2"
   style="opacity:0.1;fill:#000000;fill-opacity:1" /><path
   stroke-miterlimit="10"
   d="M 52.049,209.932"
   id="path46"
   style="fill:none;stroke:#000000;stroke-width:51.15679932;stroke-miterlimit:10" /><circle
   style="fill:#ffffff;fill-opacity:1"
   cx="137.604"
   cy="137.228"
   r="44.389"
   id="circle310" /><g
   style="fill:#000000;fill-opacity:1"
   id="g322">
			<path
   d="m 136.668,118.332 c 0,-3.103 -2.516,-5.623 -5.633,-5.623 h -4.566 c -3.107,0 -5.621,2.52 -5.621,5.623 v 23.188 c -2.33,2.141 -3.795,5.2 -3.795,8.605 0,6.47 5.244,11.703 11.707,11.703 6.457,0 11.697,-5.233 11.697,-11.703 0,-3.405 -1.465,-6.465 -3.789,-8.605 z m -7.908,39.669 c -4.346,0 -7.879,-3.532 -7.879,-7.876 0,-2.213 0.912,-4.27 2.561,-5.788 l 1.227,-1.132 v -1.686 -23.188 c 0,-0.993 0.82,-1.801 1.801,-1.801 h 4.566 c 0.996,0 1.805,0.809 1.805,1.801 v 23.188 1.686 l 1.232,1.132 c 1.648,1.519 2.555,3.575 2.555,5.788 -10e-4,4.344 -3.536,7.876 -7.868,7.876 z"
   id="path312"
   style="fill:#000000;fill-opacity:1" />
			<path
   d="m 130.828,144.58 v -19.752 h -4.143 v 19.752 c -2.262,0.837 -3.883,3 -3.883,5.558 0,3.29 2.664,5.944 5.957,5.944 3.293,0 5.947,-2.654 5.947,-5.944 0.001,-2.558 -1.618,-4.718 -3.878,-5.558 z"
   id="path314"
   style="fill:#000000;fill-opacity:1" />
			<rect
   x="140.457"
   y="119.748"
   width="19.576"
   height="3.6429999"
   id="rect316"
   style="fill:#000000;fill-opacity:1" />
			<rect
   x="140.457"
   y="127.736"
   width="11.051"
   height="2.733"
   id="rect318"
   style="fill:#000000;fill-opacity:1" />
			<rect
   x="140.457"
   y="134.80901"
   width="19.576"
   height="3.6459999"
   id="rect320"
   style="fill:#000000;fill-opacity:1" />
		</g><g
   id="g330">
		<path
   style="fill:#4d4d4d"
   id="path326"
   d="M 106.338,183.084 H 92.951 l -50.744,44.09 c -2.455,-2.6 -4.82,-5.318 -7.047,-8.102 l -3.049,2.441 c 2.688,3.359 5.572,6.628 8.572,9.716 l 1.287,1.325 52.44,-45.564 h 18.6 c -2.317,-1.146 -4.545,-2.454 -6.672,-3.906 z" />
		<path
   style="fill:#4d4d4d"
   id="path328"
   d="m 240.023,219.074 c -2.543,3.183 -5.26,6.275 -8.092,9.212 l -50.441,-44.71 -0.553,-0.492 h -12.053 c -2.119,1.448 -4.344,2.756 -6.672,3.906 h 17.242 l 52.66,46.677 1.301,-1.312 c 3.395,-3.422 6.645,-7.07 9.658,-10.843 z" />
	</g>
</svg>