<?xml version="1.0" encoding="UTF-8" standalone="no"?>
<svg
   xmlns:dc="http://purl.org/dc/elements/1.1/"
   xmlns:cc="http://creativecommons.org/ns#"
   xmlns:rdf="http://www.w3.org/1999/02/22-rdf-syntax-ns#"
   xmlns:svg="http://www.w3.org/2000/svg"
   xmlns="http://www.w3.org/2000/svg"
   xml:space="preserve"
   enable-background="new 0 0 275.214 227.59"
   viewBox="0 0 275.214 227.59"
   height="227.59px"
   width="275.214px"
   y="0px"
   x="0px"
   id="Livello_1"
   version="1.1"><metadata
   id="metadata299"><rdf:RDF><cc:Work
       rdf:about=""><dc:format>image/svg+xml</dc:format><dc:type
         rdf:resource="http://purl.org/dc/dcmitype/StillImage" /><dc:title></dc:title></cc:Work></rdf:RDF></metadata><defs
   id="defs297">
	
	
	
	
	
	
	
	
	
	
	
	
	
	
	
</defs>
<path
   d="m 241.872,227.412 -38.75,-33.398 c 13.501,-15.663 20.936,-35.695 20.936,-56.406 0,-47.669 -38.781,-86.451 -86.449,-86.451 -47.67,0 -86.452,38.782 -86.452,86.451 0,20.423 7.252,40.24 20.42,55.802 L 32.526,226.455 C 11.551,201.668 0,170.114 0,137.607 0,61.73 61.73,0 137.608,0 c 75.876,0 137.605,61.73 137.605,137.607 10e-4,32.967 -11.84,64.86 -33.341,89.805 z"
   id="path2"
   style="opacity:0.1;fill:#ffffff" /><g
   id="g272">
		<circle
   cx="137.60699"
   cy="137.565"
   r="44.389"
   id="circle266" />
		<g
   id="g270">
			<path
   d="m 170.936,128.807 -5.354,-3.451 -20.677,7.352 -3.868,-2.291 h -9.782 v -1.273 h 4.197 v -3.477 h -11.874 v 3.477 h 4.2 v 1.273 h -10.923 l -7.201,-4.146 -5.488,5.727 11.668,15.104 0.11,-0.086 v 1.939 h 25.229 l 24.297,-19.531 3.585,2.313 z m -62.19,3.429 1.534,-1.598 5.657,3.262 v 7.652 z m 63.854,6.711 c 0,1.438 -1.166,2.605 -2.605,2.605 -1.44,0 -2.607,-1.162 -2.607,-2.605 0,-1.443 2.607,-6.01 2.607,-6.01 0,0 2.605,4.569 2.605,6.01 z"
   id="path268"
   style="fill:#999999" />
		</g>
	</g><g
   id="g290">
		<path
   d="M 102.873,182.086 H 85.109 l -47.328,40.031 c -2.363,-2.785 -4.625,-5.688 -6.738,-8.65 l -3.18,2.27 c 2.559,3.586 5.328,7.088 8.231,10.408 l 1.265,1.445 49.182,-41.598 h 22.049 c -1.983,-1.189 -3.897,-2.486 -5.717,-3.906 z"
   id="path286"
   style="fill:#4d4d4d" />
		<path
   d="m 244.172,213.424 c -1.968,2.762 -4.064,5.477 -6.248,8.088 l -46.008,-39.426 h -19.568 c -1.81,1.414 -3.717,2.715 -5.701,3.906 h 23.824 l 47.881,41.029 1.271,-1.477 c 2.717,-3.15 5.317,-6.467 7.73,-9.855 z"
   id="path288"
   style="fill:#4d4d4d" />
	</g>
</svg>