<?xml version="1.0" encoding="UTF-8" standalone="no"?>
<svg
   xmlns:dc="http://purl.org/dc/elements/1.1/"
   xmlns:cc="http://creativecommons.org/ns#"
   xmlns:rdf="http://www.w3.org/1999/02/22-rdf-syntax-ns#"
   xmlns:svg="http://www.w3.org/2000/svg"
   xmlns="http://www.w3.org/2000/svg"
   width="185.39801"
   height="62.900002"
   viewBox="0 0 49.053224 16.642292"
   version="1.1"
   id="svg1590">
  <defs
     id="defs1584" />
  <metadata
     id="metadata1587">
    <rdf:RDF>
      <cc:Work
         rdf:about="">
        <dc:format>image/svg+xml</dc:format>
        <dc:type
           rdf:resource="http://purl.org/dc/dcmitype/StillImage" />
        <dc:title></dc:title>
      </cc:Work>
    </rdf:RDF>
  </metadata>
  <g
     id="layer1"
     transform="translate(-83.370073,-141.61219)">
    <g
       id="g10-68-7-8"
       transform="matrix(0.26458333,0,0,0.26458333,-156.82502,141.61219)">
      <g
         style="opacity:0.25"
         id="g4-29-3-0">
        <path
           style="fill:#ffffff"
           id="path2-4-4-0"
           d="m 1044.526,1 c 6.315,0 13.302,4.795 15.573,10.687 l 16.071,41.898 H 935.266 c -2.811,0 -6.705,-2.674 -7.718,-5.298 L 909.282,1 h 135.244 m 0,-1 H 907.824 l 18.791,48.647 c 1.155,2.995 5.441,5.938 8.65,5.938 h 142.36 L 1061.032,11.328 C 1058.631,5.097 1051.207,0 1044.526,0 Z" />
      </g>
    </g>
  </g>
</svg>
