<?xml version="1.0" encoding="UTF-8" standalone="no"?>
<svg
   xmlns:dc="http://purl.org/dc/elements/1.1/"
   xmlns:cc="http://creativecommons.org/ns#"
   xmlns:rdf="http://www.w3.org/1999/02/22-rdf-syntax-ns#"
   xmlns:svg="http://www.w3.org/2000/svg"
   xmlns="http://www.w3.org/2000/svg"
   xml:space="preserve"
   enable-background="new 0 0 668.467 668.521"
   viewBox="0 0 668.00002 668"
   height="668"
   width="668"
   y="0px"
   x="0px"
   id="Livello_1"
   version="1.1"><metadata
     id="metadata31"><rdf:RDF><cc:Work
         rdf:about=""><dc:format>image/svg+xml</dc:format><dc:type
           rdf:resource="http://purl.org/dc/dcmitype/StillImage" /><dc:title></dc:title></cc:Work></rdf:RDF></metadata><defs
     id="defs29" /><rect
     style="fill:#26323c;stroke:none"
     id="rect18-1"
     height="11.326"
     width="5"
     y="328.33704"
     x="147.46335" /><g
     transform="matrix(0.99938316,0,0,0.99930348,-0.02607696,0.00169025)"
     id="g4"
     style="opacity:0.65"><ellipse
       transform="matrix(-0.8277,0.5612,-0.5612,-0.8277,798.4645,423.325)"
       cx="334.23401"
       cy="334.26001"
       rx="185.77299"
       ry="185.812"
       id="ellipse2"
       style="fill:none" /></g><g
     transform="matrix(0.99938316,0,0,0.99930348,-0.02607696,0.00169025)"
     id="g8"
     style="opacity:0.65"><ellipse
       transform="matrix(-0.8277,0.5612,-0.5612,-0.8277,798.465,423.3268)"
       cx="334.23401"
       cy="334.26099"
       rx="334.17801"
       ry="334.25"
       id="ellipse6"
       style="fill:none" /></g><g
     transform="matrix(0.99938316,0,0,0.99930348,-0.02607696,-0.28300319)"
     id="g16"
     style="stroke:none"><g
       id="g14"
       style="stroke:none"><path
         style="fill:#e6511e;stroke:none"
         id="path10"
         d="m 148.091,336.415 3.902,-0.009 c -0.009,-0.636 -0.053,-1.263 -0.054,-1.897 -0.001,-0.639 0.039,-1.267 0.047,-1.901 l -3.903,0.008 z" /><polygon
         style="fill:#e6511e;stroke:none"
         id="polygon12"
         points="145.293,336.42 145.286,332.622 23.484,334.027 23.487,335.506 " /></g></g><rect
     style="fill:#26323c;stroke:none"
     id="rect20"
     height="3.7663748"
     width="3.993535"
     y="335.89667"
     x="147.99156" /></svg>
