<?xml version="1.0" encoding="UTF-8" standalone="no"?>
<svg
   xmlns:dc="http://purl.org/dc/elements/1.1/"
   xmlns:cc="http://creativecommons.org/ns#"
   xmlns:rdf="http://www.w3.org/1999/02/22-rdf-syntax-ns#"
   xmlns:svg="http://www.w3.org/2000/svg"
   xmlns="http://www.w3.org/2000/svg"
   version="1.1"
   id="Livello_1"
   x="0px"
   y="0px"
   width="85.596px"
   height="85.596px"
   viewBox="0 0 85.596 85.596"
   enable-background="new 0 0 85.596 85.596"
   xml:space="preserve"><metadata
     id="metadata18"><rdf:RDF><cc:Work
         rdf:about=""><dc:format>image/svg+xml</dc:format><dc:type
           rdf:resource="http://purl.org/dc/dcmitype/StillImage" /><dc:title></dc:title></cc:Work></rdf:RDF></metadata><defs
     id="defs16" /><path
     style="stroke:none;opacity:0.2;fill:#ffffff"
     id="path2"
     d="M 10,0 C 4.5,0 0,4.5 0,10 v 75.596 h 75.596 c 5.5,0 10,-4.5 10,-10 V 0 Z" /><g
     style="stroke:none;overflow:visible"
     id="g1111"
     transform="matrix(0.77610535,0,0,0.7760871,9.7980005,9.7980004)"><polygon
       id="polygon1091"
       points="56.77,0.002 78.04,0.002 85.04,0 0,0 7,0.002 28.25,0.002 "
       style="stroke:none;fill:none" /><path
       style="stroke:none;fill:#008d45;stroke-width:0.77609622"
       d="M 17.664062 10 C 13.449168 10 10 13.449174 10 17.664062 L 10 75.595703 L 31.722656 75.595703 L 31.722656 10 L 17.664062 10 z "
       transform="matrix(1.2884849,0,0,1.2885152,-12.624575,-12.624872)"
       id="rect1093" /><path
       style="stroke:none;fill:#ffffff;stroke-width:0.77609622"
       d="M 31.722656 10 L 31.722656 75.595703 L 53.857422 75.595703 L 53.857422 10 L 31.722656 10 z "
       transform="matrix(1.2884849,0,0,1.2885152,-12.624575,-12.624872)"
       id="rect1095" /><path
       style="stroke:none;fill:#d2222b;stroke-width:0.77609622"
       d="m 53.857422,10 v 65.595703 h 14.074219 c 4.21489,0 7.664062,-3.449172 7.664062,-7.664062 V 10 Z"
       transform="matrix(1.2884849,0,0,1.2885152,-12.624575,-12.624872)"
       id="rect1097" /></g><path
     id="BgColor00-6"
     d="m 17.664207,10.000149 c -4.214894,0 -7.664064,3.449174 -7.664064,7.664062 v 57.931641 h 57.931654 c 4.21489,0 7.66406,-3.449172 7.66406,-7.664062 V 10.000149 Z"
     style="stroke:none;opacity:0.2;fill:#000000;fill-opacity:1;stroke-width:0.76634383" /></svg>