<?xml version="1.0" encoding="UTF-8" standalone="no"?>
<svg
   xmlns:dc="http://purl.org/dc/elements/1.1/"
   xmlns:cc="http://creativecommons.org/ns#"
   xmlns:rdf="http://www.w3.org/1999/02/22-rdf-syntax-ns#"
   xmlns:svg="http://www.w3.org/2000/svg"
   xmlns="http://www.w3.org/2000/svg"
   version="1.1"
   id="Livello_1"
   x="0px"
   y="0px"
   width="85.596px"
   height="85.596px"
   viewBox="0 0 85.596 85.596"
   enable-background="new 0 0 85.596 85.596"
   xml:space="preserve"><metadata
     id="metadata18"><rdf:RDF><cc:Work
         rdf:about=""><dc:format>image/svg+xml</dc:format><dc:type
           rdf:resource="http://purl.org/dc/dcmitype/StillImage" /><dc:title></dc:title></cc:Work></rdf:RDF></metadata><defs
     id="defs16" /><path
     style="stroke:none;opacity:0.2;fill:#ffffff"
     id="path2"
     d="M 10,0 C 4.5,0 0,4.5 0,10 v 75.596 h 75.596 c 5.5,0 10,-4.5 10,-10 V 0 Z m 60.297,17.253 c -1.445,0 -2.619,-1.173 -2.619,-2.615 0,-1.444 1.174,-2.619 2.619,-2.619 1.443,0 2.619,1.175 2.619,2.619 0,1.442 -1.176,2.615 -2.619,2.615 z" /><g
     id="g4535"
     transform="matrix(0.99386633,0,0,0.9923535,0.26209748,0.32684421)"><path
       style="stroke:none;fill:#152b74;stroke-width:0.77610534"
       d="m 52.701172,57.03125 v 18.767578 h 15.384766 c 2.899984,0 5.437793,-1.62556 6.753906,-4.007812 z"
       id="polygon814-4" /><polygon
       style="stroke:none;fill:#152b74"
       id="polygon816-1"
       points="0,55.28 0,61.1 8.729,55.28 "
       transform="matrix(0.77610536,0,0,0.77610536,9.7980004,9.7980004)" /><polygon
       style="stroke:none;fill:#152b74"
       id="polygon818-8"
       points="0,24.02 0,29.77 8.629,29.77 "
       transform="matrix(0.77610536,0,0,0.77610536,9.7980004,9.7980004)" /><polygon
       style="stroke:none;fill:#152b74"
       id="polygon820-3"
       points="85.04,61.1 85.04,55.28 76.31,55.28 "
       transform="matrix(0.77610536,0,0,0.77610536,9.7980004,9.7980004)" /><path
       style="stroke:none;fill:#152b74;stroke-width:0.77610534"
       d="M 52.701172,9.7988281 V 28.619141 L 75.798828,13.220703 V 9.7988281 Z"
       id="polygon822-4" /><polygon
       style="stroke:none;fill:#152b74"
       id="polygon824-6"
       points="0,80.7 0,85.04 29.76,85.04 29.76,60.86 "
       transform="matrix(0.77610536,0,0,0.77610536,9.7980004,9.7980004)" /><path
       style="stroke:none;fill:#152b74;stroke-width:0.77610534"
       d="m 17.509766,9.7988281 c -2.917145,0 -5.469994,1.6415159 -6.779297,4.0468749 l 22.164062,14.78125 V 9.7988281 Z"
       id="polygon826-8" /><polygon
       style="stroke:none;fill:#152b74"
       id="polygon828-9"
       points="85.04,29.77 85.04,24.02 76.41,29.77 "
       transform="matrix(0.77610536,0,0,0.77610536,9.7980004,9.7980004)" /><polygon
       style="stroke:none;fill:#ffffff"
       id="polygon832-3"
       points="55.28,24.25 55.28,0 49.96,0 49.96,27.8 "
       transform="matrix(0.77610536,0,0,0.77610536,9.7980004,9.7980004)" /><polygon
       style="stroke:none;fill:#ffffff"
       id="polygon834-7"
       points="49.96,57.32 49.96,85.04 55.28,85.04 55.28,60.86 "
       transform="matrix(0.77610536,0,0,0.77610536,9.7980004,9.7980004)" /><polygon
       style="stroke:none;fill:#ffffff"
       id="polygon836-2"
       points="8.629,29.77 0,29.77 0,35.08 16.59,35.08 "
       transform="matrix(0.77610536,0,0,0.77610536,9.7980004,9.7980004)" /><polygon
       style="stroke:none;fill:#ffffff"
       id="polygon838-9"
       points="35.07,27.8 35.07,0 29.76,0 29.76,24.26 "
       transform="matrix(0.77610536,0,0,0.77610536,9.7980004,9.7980004)" /><polygon
       style="stroke:none;fill:#ffffff"
       id="polygon840-6"
       points="29.76,60.86 29.76,85.04 35.07,85.04 35.07,57.32 "
       transform="matrix(0.77610536,0,0,0.77610536,9.7980004,9.7980004)" /><polygon
       style="stroke:none;fill:#ffffff"
       id="polygon842-1"
       points="76.31,55.28 85.04,55.28 85.04,49.96 68.33,49.96 "
       transform="matrix(0.77610536,0,0,0.77610536,9.7980004,9.7980004)" /><polygon
       style="stroke:none;fill:#ffffff"
       id="polygon844-4"
       points="16.71,49.96 0,49.96 0,55.28 8.729,55.28 "
       transform="matrix(0.77610536,0,0,0.77610536,9.7980004,9.7980004)" /><polygon
       style="stroke:none;fill:#ffffff"
       id="polygon846-7"
       points="68.45,35.08 85.04,35.08 85.04,29.77 76.41,29.77 "
       transform="matrix(0.77610536,0,0,0.77610536,9.7980004,9.7980004)" /><path
       style="stroke:none;fill:#ffffff;stroke-width:0.77610534"
       d="m 48.572266,48.572266 v 5.71289 l 4.128906,2.746094 22.138672,14.759766 c 0.60854,-1.101499 0.958984,-2.364193 0.958984,-3.705078 V 64.636719 L 57.853516,52.701172 h 7.832031 l 10.113281,6.720703 V 57.21875 l -6.77539,-4.517578 -6.19336,-4.128906 z"
       id="polygon848-1" /><path
       style="stroke:none;fill:#ffffff;stroke-width:0.77610534"
       d="m 10.730469,13.845703 c -0.594129,1.091491 -0.9316409,2.340338 -0.9316409,3.664063 v 3.308593 L 27.966797,32.902344 H 20.128906 L 9.7988281,26.033203 v 2.40625 l 6.6953129,4.462891 6.179687,4.121094 h 14.341797 v -5.650391 l -4.121094,-2.746094 z"
       id="polygon850-6" /><polygon
       style="stroke:none;fill:#ffffff"
       id="polygon852-1"
       points="35.07,57.32 35.07,49.96 16.71,49.96 8.729,55.28 0,61.1 0,70.67 23.14,55.28 29.76,55.28 29.76,57.59 0,77.38 0,80.7 29.76,60.86 "
       transform="matrix(0.77610536,0,0,0.77610536,9.7980004,9.7980004)" /><path
       style="stroke:none;fill:#ffffff;stroke-width:0.77610534"
       d="m 75.798828,13.220703 -23.097656,15.398438 -4.128906,2.753906 v 5.650391 h 14.349609 l 6.177734,-4.121094 6.699219,-4.462891 V 20.779297 L 57.574219,32.902344 H 52.701172 V 30.931641 L 75.798828,15.566406 Z"
       id="polygon854-0" /><polygon
       style="stroke:none;fill:#ce142a"
       id="polygon858-5"
       points="68.45,35.08 49.96,35.08 49.96,27.8 49.96,0 35.07,0 35.07,27.8 35.07,35.08 16.59,35.08 0,35.08 0,49.96 16.71,49.96 35.07,49.96 35.07,57.32 35.07,85.04 49.96,85.04 49.96,57.32 49.96,49.96 68.33,49.96 85.04,49.96 85.04,35.08 "
       transform="matrix(0.77610536,0,0,0.77610536,9.7980004,9.7980004)" /><polygon
       style="stroke:none;fill:#ce142a"
       id="polygon860-0"
       points="61.92,55.28 85.04,70.66 85.04,63.94 72.01,55.28 "
       transform="matrix(0.77610536,0,0,0.77610536,9.7980004,9.7980004)" /><polygon
       style="stroke:none;fill:#ce142a"
       id="polygon862-1"
       points="55.28,27.23 55.28,29.77 61.56,29.77 85.04,14.15 85.04,7.432 "
       transform="matrix(0.77610536,0,0,0.77610536,9.7980004,9.7980004)" /><polygon
       style="stroke:none;fill:#ce142a"
       id="polygon864-2"
       points="29.76,57.59 29.76,55.28 23.14,55.28 0,70.67 0,77.38 "
       transform="matrix(0.77610536,0,0,0.77610536,9.7980004,9.7980004)" /><polygon
       style="stroke:none;fill:#ce142a"
       id="polygon866-1"
       points="23.41,29.77 0,14.2 0,20.92 13.31,29.77 "
       transform="matrix(0.77610536,0,0,0.77610536,9.7980004,9.7980004)" /></g></svg>