<?xml version="1.0" encoding="UTF-8" standalone="no"?>
<svg
   xmlns:dc="http://purl.org/dc/elements/1.1/"
   xmlns:cc="http://creativecommons.org/ns#"
   xmlns:rdf="http://www.w3.org/1999/02/22-rdf-syntax-ns#"
   xmlns:svg="http://www.w3.org/2000/svg"
   xmlns="http://www.w3.org/2000/svg"
   xml:space="preserve"
   style="enable-background:new 0 0 85.6 85.6;"
   viewBox="0 0 85.6 85.6"
   y="0px"
   x="0px"
   id="Livello_1"
   version="1.1"><metadata
     id="metadata29"><rdf:RDF><cc:Work
         rdf:about=""><dc:format>image/svg+xml</dc:format><dc:type
           rdf:resource="http://purl.org/dc/dcmitype/StillImage" /><dc:title></dc:title></cc:Work></rdf:RDF></metadata><defs
     id="defs27" /><style
     id="style2"
     type="text/css">
	.st0{opacity:0.2;fill:#FFFFFF;enable-background:new    ;}
	.st1{fill:#FFFFFF;}
	.st2{fill:none;stroke:#FFFFFF;stroke-width:4;stroke-linecap:round;stroke-miterlimit:10;}
</style><path
     id="path4"
     d="M 10,0 C 4.5,0 0,4.5 0,10 v 75.599609 h 75.599609 c 5.5,0 10,-4.5 10,-10 V 0 Z"
     style="opacity:0.2;fill:#ffffff;enable-background:new" /><g
     id="g14"><path
       class="st1"
       d="m 42.8,64.4 c -10.5,0 -19,-8.5 -19,-19 0,-10.5 8.5,-19 19,-19 10.5,0 19,8.5 19,19 0,10.5 -8.5,19 -19,19 z m 0,-34 c -8.3,0 -15,6.7 -15,15 0,8.3 6.7,15 15,15 8.3,0 15,-6.7 15,-15 0,-8.3 -6.7,-15 -15,-15 z"
       id="path8"
       style="fill:#ffffff" /><path
       class="st2"
       d="M 42.8,43.9"
       id="path10"
       style="fill:none;stroke:#ffffff;stroke-width:4;stroke-linecap:round;stroke-miterlimit:10" /><path
       class="st2"
       d="M 42.8,23.2"
       id="path12"
       style="fill:none;stroke:#ffffff;stroke-width:4;stroke-linecap:round;stroke-miterlimit:10" /></g><g
     id="g20"><path
       id="path18"
       d="M1057.4-287.4c-5.5,0-10,4.5-10,10v75.6h75.6c5.5,0,10-4.5,10-10v-75.6H1057.4z M1117.7-270.1   c-1.4,0-2.6-1.2-2.6-2.6c0-1.4,1.2-2.6,2.6-2.6c1.4,0,2.6,1.2,2.6,2.6C1120.3-271.3,1119.1-270.1,1117.7-270.1z"
       class="st0" /></g><path
     id="path22"
     d="M1090.2-225.2c-1.1,0-2-0.9-2-2v-29.7c0-1.1,0.9-2,2-2s2,0.9,2,2v29.7C1092.2-226.1,1091.3-225.2,1090.2-225.2z  "
     class="st1" /></svg>