<?xml version="1.0" encoding="UTF-8" standalone="no"?>
<svg
   xmlns:osb="http://www.openswatchbook.org/uri/2009/osb"
   xmlns:dc="http://purl.org/dc/elements/1.1/"
   xmlns:cc="http://creativecommons.org/ns#"
   xmlns:rdf="http://www.w3.org/1999/02/22-rdf-syntax-ns#"
   xmlns:svg="http://www.w3.org/2000/svg"
   xmlns="http://www.w3.org/2000/svg"
   xmlns:sodipodi="http://sodipodi.sourceforge.net/DTD/sodipodi-0.dtd"
   xmlns:inkscape="http://www.inkscape.org/namespaces/inkscape"
   xml:space="preserve"
   enable-background="new 0 0 1920 72"
   viewBox="0 0 1840 89"
   height="89"
   width="1840"
   y="0px"
   x="0px"
   id="Livello_1"
   version="1.1"
   sodipodi:docname="N30_Menu_Alarm01_off.svg"
   inkscape:version="1.0.2-2 (e86c870879, 2021-01-15)"><sodipodi:namedview
     pagecolor="#ffffff"
     bordercolor="#666666"
     borderopacity="1"
     objecttolerance="10"
     gridtolerance="10"
     guidetolerance="10"
     inkscape:pageopacity="0"
     inkscape:pageshadow="2"
     inkscape:window-width="1920"
     inkscape:window-height="1001"
     id="namedview19"
     showgrid="false"
     inkscape:zoom="1.0829494"
     inkscape:cx="1146.3505"
     inkscape:cy="144.71914"
     inkscape:window-x="-9"
     inkscape:window-y="-9"
     inkscape:window-maximized="1"
     inkscape:current-layer="Livello_1"
     inkscape:document-rotation="0" /><metadata
     id="metadata33"><rdf:RDF><cc:Work
         rdf:about=""><dc:format>image/svg+xml</dc:format><dc:type
           rdf:resource="http://purl.org/dc/dcmitype/StillImage" /><dc:title /></cc:Work></rdf:RDF></metadata><defs
     id="defs31"><linearGradient
       id="linearGradient860"
       osb:paint="solid"><stop
         style="stop-color:#500000;stop-opacity:1;"
         offset="0"
         id="stop858" /></linearGradient></defs><g
     id="g20-9-5"
     transform="translate(-79.999868,-0.41501)"
     style="stroke:none;opacity:0.4;fill-opacity:1;"><g
       id="g8-2"
       style="fill-opacity:1;"><rect
         style="stroke:none;fill-opacity:1;"
         id="rect6-4"
         height="7.6459999"
         width="3.8699999"
         y="42.742001"
         x="1765.948" /></g><g
       id="g18-6-2"
       style="fill-opacity:1;"><g
         id="g12-0"
         style="fill-opacity:1;"><rect
           style="stroke:none;fill-opacity:1;"
           id="rect10-5"
           height="3.8710001"
           width="3.8699999"
           y="52.617001"
           x="1765.948" /></g><g
         id="g16-3-1"
         style="fill-opacity:1;"><path
           style="stroke:none;fill-opacity:1;"
           id="path14-0-6"
           d="m 1754.346,50.235 9.93,-17.188 c 0.859,-1.495 2.176,-2.351 3.611,-2.351 1.431,0 2.75,0.855 3.61,2.351 l 9.923,17.188 c 0.863,1.492 0.945,3.062 0.232,4.301 -0.721,1.241 -2.119,1.952 -3.843,1.952 h -5.481 v -3.871 h 5.481 c 0.2,0 0.343,-0.025 0.432,-0.048 -0.022,-0.089 -0.073,-0.228 -0.171,-0.4 l -9.93,-17.189 c -0.098,-0.171 -0.19,-0.285 -0.254,-0.351 -0.069,0.065 -0.16,0.18 -0.262,0.351 l -9.923,17.189 c -0.101,0.173 -0.153,0.312 -0.177,0.4 0.094,0.022 0.236,0.048 0.435,0.048 h 5.481 v 3.871 h -5.481 c -1.724,0 -3.128,-0.711 -3.84,-1.952 -0.717,-1.239 -0.633,-2.808 0.227,-4.301 z" /></g></g></g><g
     transform="translate(-80,17)"
     id="g8"
     style="fill-opacity:1;"><g
       style="stroke:none;opacity:0.25;fill-opacity:1;"
       id="g6"><g
         id="g4"
         style="fill-opacity:1;"><path
           style="stroke:none;fill-opacity:1;"
           id="path2"
           d="m 1825.632,1 -18.266,47.287 c -1.013,2.624 -4.907,5.298 -7.718,5.298 h -85.041 l 16.072,-41.897 C 1732.951,5.795 1739.938,1 1746.253,1 h 79.379 m 1.458,-1 h -80.837 c -6.681,0 -14.104,5.097 -16.507,11.328 l -16.593,43.257 h 86.495 c 3.209,0 7.495,-2.942 8.65,-5.938 z" /></g></g></g><rect
     style="fill:none;fill-opacity:1;stroke:none"
     y="17"
     x="-80"
     id="rect26"
     height="72"
     width="1920" /></svg>
