<?xml version="1.0" encoding="UTF-8" standalone="no"?>
<svg
   xmlns:dc="http://purl.org/dc/elements/1.1/"
   xmlns:cc="http://creativecommons.org/ns#"
   xmlns:rdf="http://www.w3.org/1999/02/22-rdf-syntax-ns#"
   xmlns:svg="http://www.w3.org/2000/svg"
   xmlns="http://www.w3.org/2000/svg"
   version="1.1"
   id="Livello_1"
   x="0px"
   y="0px"
   width="1840"
   height="72"
   viewBox="0 0 1840 72"
   enable-background="new 0 0 1920 72"
   xml:space="preserve"><metadata
   id="metadata19"><rdf:RDF><cc:Work
       rdf:about=""><dc:format>image/svg+xml</dc:format><dc:type
         rdf:resource="http://purl.org/dc/dcmitype/StillImage" /><dc:title></dc:title></cc:Work></rdf:RDF></metadata><defs
   id="defs17">
	
	
	
</defs>
<path
   style="stroke:none;clip-rule:evenodd;opacity:0.3;fill:#ffffff;fill-rule:evenodd"
   id="path2"
   d="m 0,0 v 72 h 173.8775 c 6.679,0 14.103,-5.097 16.506,-11.328 l 15.547,-40.344 c 2.401,-6.23 8.297,-11.33 16.506,-11.33 H 1617.564 c 8.209,0 14.104,5.1 16.506,11.33 l 15.547,40.344 C 1652.02,66.903 1659.444,72 1666.123,72 H 1840 V 0 Z" /><g
   transform="translate(-80)"
   style="stroke:none;opacity:0.45"
   id="g10">
		
	</g>
</svg>