<?xml version="1.0" encoding="UTF-8" standalone="no"?>
<svg
   xmlns:dc="http://purl.org/dc/elements/1.1/"
   xmlns:cc="http://creativecommons.org/ns#"
   xmlns:rdf="http://www.w3.org/1999/02/22-rdf-syntax-ns#"
   xmlns:svg="http://www.w3.org/2000/svg"
   xmlns="http://www.w3.org/2000/svg"
   xmlns:sodipodi="http://sodipodi.sourceforge.net/DTD/sodipodi-0.dtd"
   xmlns:inkscape="http://www.inkscape.org/namespaces/inkscape"
   version="1.1"
   id="Livello_1"
   x="0px"
   y="0px"
   width="1840"
   height="868"
   viewBox="0 0 1840 868"
   enable-background="new 0 0 1920 1080"
   xml:space="preserve"
   sodipodi:docname="n30_engines_map.svg"
   inkscape:version="1.0.2-2 (e86c870879, 2021-01-15)"><sodipodi:namedview
     pagecolor="#ffffff"
     bordercolor="#666666"
     borderopacity="1"
     objecttolerance="10"
     gridtolerance="10"
     guidetolerance="10"
     inkscape:pageopacity="0"
     inkscape:pageshadow="2"
     inkscape:window-width="1920"
     inkscape:window-height="1001"
     id="namedview157"
     showgrid="false"
     inkscape:zoom="0.76576087"
     inkscape:cx="450.53952"
     inkscape:cy="490.7565"
     inkscape:window-x="-9"
     inkscape:window-y="-9"
     inkscape:window-maximized="1"
     inkscape:current-layer="Livello_1"
     inkscape:document-rotation="0" /><metadata
     id="metadata327"><rdf:RDF><cc:Work
         rdf:about=""><dc:format>image/svg+xml</dc:format><dc:type
           rdf:resource="http://purl.org/dc/dcmitype/StillImage" /><dc:title /></cc:Work></rdf:RDF></metadata><defs
     id="defs325" /><rect
     style="fill:none;stroke-width:0.87761956"
     y="0"
     x="0"
     width="1840"
     height="868"
     id="rect873" /><g
     transform="translate(-40,-90)"
     id="g883"><g
       style="opacity:0.6"
       id="g877"><path
         style="fill:none;stroke:#f5f5f5;stroke-width:2;stroke-miterlimit:10"
         stroke-miterlimit="10"
         d="m 959.886,204.254 c 97.941,0 186.889,38.505 252.532,101.204 3.601,3.439 14.798,10.534 24.743,10.534 9.945,0 35.586,0 35.586,0"
         id="path875" /></g><g
       style="opacity:0.6"
       id="g881"><path
         style="fill:none;stroke:#f5f5f5;stroke-width:2;stroke-miterlimit:10"
         stroke-miterlimit="10"
         d="m 960.114,204.254 c -97.941,0 -186.889,38.505 -252.532,101.204 -3.601,3.439 -14.798,10.534 -24.743,10.534 -9.945,0 -35.586,0 -35.586,0"
         id="path879" /></g></g><g
     transform="translate(-40,-90)"
     id="g951"><path
       id="path929"
       d="m 1261.628,244.158 c 0.336,-0.09 0.916,-0.245 1.195,-0.322 0.327,-0.088 0.386,-0.234 0.287,-0.551 -1.425,-4.468 -3.855,-7.855 -8.195,-9.279 -0.332,-0.106 -0.53,-0.033 -0.657,0.341 -0.087,0.265 -0.12,0.542 -0.106,0.904 0.01,0.378 0.096,0.532 0.257,0.676 3.261,3.001 4.581,5.064 4.974,9.899 0.252,3.107 1.374,8.838 2.224,11.347 0.588,1.731 -0.777,3.65 -2.664,3.65 -1.548,0 -2.81,-1.255 -2.81,-2.798 v -8.082 c 0,-2.23 -1.827,-3.824 -3.755,-3.82 -0.065,0 -0.268,0 -0.455,0 v -10.205 c 0,-1.037 -0.842,-1.878 -1.88,-1.878 h -12.812 c -1.032,0 -1.878,0.841 -1.878,1.878 0,1.547 0,27.721 0,27.751 0,0.298 -0.241,0.531 -0.537,0.531 0,0 -0.134,0 -0.582,0 -0.298,0 -0.535,0.23 -0.535,0.53 v 1.244 c 0,0.297 0.237,0.533 0.535,0.533 h 18.807 c 0.297,0 0.537,-0.236 0.537,-0.533 v -1.244 c 0,-0.3 -0.24,-0.53 -0.537,-0.53 -0.449,0 -0.581,0 -0.581,0 -0.298,0 -0.537,-0.233 -0.537,-0.531 v -15.417 c 0.141,0 0.27,0 0.312,0 1.257,0 1.752,1.002 1.752,1.691 0,2.129 0,5.885 0,8.082 0,2.732 2.219,4.947 4.956,4.947 3.155,0 5.768,-3.051 4.715,-6.441 -1.019,-3.275 -2.137,-8.815 -2.269,-12.064 -0.01,-0.106 0.069,-0.261 0.239,-0.309 z m -11.852,1.036 c 0,0.296 -0.241,0.537 -0.539,0.537 h -11.042 c -0.294,0 -0.535,-0.241 -0.535,-0.537 V 236.8 c 0,-0.298 0.241,-0.536 0.535,-0.536 h 11.042 c 0.298,0 0.539,0.238 0.539,0.536 z"
       style="fill:#8c8c8c" /><g
       id="g937"><line
         id="line931"
         y2="92"
         x2="1272.7469"
         y1="92"
         x1="1093.1021"
         stroke-miterlimit="10"
         style="opacity:0.6;fill:none;stroke:#f5f5f5;stroke-width:4;stroke-miterlimit:10" /><line
         id="line933"
         y2="204"
         x2="1272.7469"
         y1="204"
         x1="1093.1021"
         stroke-miterlimit="10"
         style="opacity:0.6;fill:none;stroke:#f5f5f5;stroke-width:2;stroke-miterlimit:10" /><line
         id="line935"
         y2="148"
         x2="1272.719"
         y1="148"
         x1="1092.937"
         stroke-miterlimit="10"
         style="opacity:0.6;fill:none;stroke:#f5f5f5;stroke-width:1.76259995;stroke-miterlimit:10" /></g><rect
       id="rect939"
       height="56"
       width="239.645"
       stroke-miterlimit="10"
       y="92"
       x="840.05798"
       style="opacity:0.6;fill:none;stroke:#f5f5f5;stroke-width:4;stroke-miterlimit:10" /><path
       id="path941"
       d="m 685.812,244.158 c 0.336,-0.09 0.916,-0.245 1.195,-0.322 0.327,-0.088 0.386,-0.234 0.287,-0.551 -1.425,-4.468 -3.855,-7.855 -8.195,-9.279 -0.332,-0.106 -0.53,-0.033 -0.657,0.341 -0.087,0.265 -0.12,0.542 -0.106,0.904 0.008,0.378 0.096,0.532 0.257,0.676 3.261,3.001 4.581,5.064 4.974,9.899 0.252,3.107 1.374,8.838 2.224,11.347 0.588,1.731 -0.777,3.65 -2.664,3.65 -1.548,0 -2.81,-1.255 -2.81,-2.798 v -8.082 c 0,-2.23 -1.827,-3.824 -3.755,-3.82 -0.065,0 -0.268,0 -0.455,0 v -10.205 c 0,-1.037 -0.842,-1.878 -1.88,-1.878 h -12.812 c -1.032,0 -1.878,0.841 -1.878,1.878 0,1.547 0,27.721 0,27.751 0,0.298 -0.241,0.531 -0.537,0.531 0,0 -0.134,0 -0.582,0 -0.298,0 -0.535,0.23 -0.535,0.53 v 1.244 c 0,0.297 0.237,0.533 0.535,0.533 h 18.807 c 0.297,0 0.537,-0.236 0.537,-0.533 v -1.244 c 0,-0.3 -0.24,-0.53 -0.537,-0.53 -0.449,0 -0.581,0 -0.581,0 -0.298,0 -0.537,-0.233 -0.537,-0.531 v -15.417 c 0.141,0 0.27,0 0.312,0 1.257,0 1.752,1.002 1.752,1.691 0,2.129 0,5.885 0,8.082 0,2.732 2.219,4.947 4.956,4.947 3.155,0 5.768,-3.051 4.715,-6.441 -1.019,-3.275 -2.137,-8.815 -2.269,-12.064 -0.008,-0.106 0.069,-0.261 0.239,-0.309 z m -11.852,1.036 c 0,0.296 -0.241,0.537 -0.539,0.537 h -11.042 c -0.294,0 -0.535,-0.241 -0.535,-0.537 V 236.8 c 0,-0.298 0.241,-0.536 0.535,-0.536 h 11.042 c 0.298,0 0.539,0.238 0.539,0.536 z"
       style="fill:#8c8c8c" /><g
       id="g949"><line
         id="line943"
         y2="92"
         x2="647.013"
         y1="92"
         x1="826.65802"
         stroke-miterlimit="10"
         style="opacity:0.6;fill:none;stroke:#f5f5f5;stroke-width:4;stroke-miterlimit:10" /><line
         id="line945"
         y2="204"
         x2="647.013"
         y1="204"
         x1="826.65802"
         stroke-miterlimit="10"
         style="opacity:0.6;fill:none;stroke:#f5f5f5;stroke-width:2;stroke-miterlimit:10" /><line
         id="line947"
         y2="148"
         x2="647.04102"
         y1="148"
         x1="826.823"
         stroke-miterlimit="10"
         style="opacity:0.6;fill:none;stroke:#f5f5f5;stroke-width:1.76259995;stroke-miterlimit:10" /></g></g><g
     transform="translate(-40,-90)"
     style="opacity:0.6"
     id="g1067"><path
       style="fill:none;stroke:#f5f5f5;stroke-width:2;stroke-miterlimit:10"
       stroke-miterlimit="10"
       d="m 959.886,932.993 c 97.941,0 186.889,-38.506 252.532,-101.205 3.601,-3.439 14.798,-10.533 24.743,-10.533 9.945,0 35.586,0 35.586,0"
       id="path1065" /></g><g
     transform="translate(-40,-90)"
     style="opacity:0.6"
     id="g1071"><path
       style="fill:none;stroke:#f5f5f5;stroke-width:2;stroke-miterlimit:10"
       stroke-miterlimit="10"
       d="m 960.114,932.993 c -97.941,0 -186.889,-38.506 -252.532,-101.205 -3.601,-3.439 -14.798,-10.533 -24.743,-10.533 -9.945,0 -35.586,0 -35.586,0"
       id="path1069" /></g><line
     style="opacity:0.6;fill:none;stroke:#f5f5f5;stroke-width:2;stroke-miterlimit:10"
     stroke-miterlimit="10"
     x1="1053.1021"
     y1="866"
     x2="1232.7469"
     y2="866"
     id="line1073" /><line
     style="opacity:0.6;fill:none;stroke:#f5f5f5;stroke-width:2;stroke-miterlimit:10"
     stroke-miterlimit="10"
     x1="607.013"
     y1="866"
     x2="786.65802"
     y2="866"
     id="line1075" /><g
     transform="translate(-40,-122)"
     style="opacity:0.6"
     id="g1079"><path
       style="fill:none;stroke:#f5f5f5;stroke-width:2;stroke-miterlimit:10"
       stroke-miterlimit="10"
       d="M 890.058,971.268 V 978 c 0,5.5 4.5,10 10,10 h 119.645 c 5.5,0 10,-4.5 10,-10 v -6.732"
       id="path1077" /></g></svg>
